\relax 
\@writefile{toc}{\contentsline {subsection}{\numberline {0.1}Gradual}{1}\protected@file@percent }
\@writefile{toc}{\contentsline {subsection}{\numberline {0.2}Alleluia}{1}\protected@file@percent }
\@writefile{toc}{\contentsline {subsection}{\numberline {0.3}Septuagesima - this Tract replaces the Alleluia}{2}\protected@file@percent }
\@writefile{toc}{\contentsline {subsection}{\numberline {0.4}Paschaltide}{2}\protected@file@percent }
