\relax 
\providecommand*{\memsetcounter}[2]{}
\@writefile{toc}{\contentsline {section}{\numberline {0.1}Propers}{1}{}\protected@file@percent }
\@writefile{toc}{\contentsline {subsection}{Introit}{1}{}\protected@file@percent }
\newmarginnote{note.1.1}{{1}{3753246sp}}
\@writefile{toc}{\contentsline {subsection}{Lesson}{1}{}\protected@file@percent }
\newmarginnote{note.1.2}{{1}{3753246sp}}
\@writefile{toc}{\contentsline {subsection}{Gradual}{2}{}\protected@file@percent }
\newmarginnote{note.2.1}{{2}{14894366sp}}
\@writefile{toc}{\contentsline {subsection}{Alleluia}{3}{}\protected@file@percent }
\newmarginnote{note.3.1}{{3}{3753246sp}}
\@writefile{toc}{\contentsline {subsection}{Gospel}{3}{}\protected@file@percent }
\newmarginnote{note.3.2}{{3}{3753246sp}}
\@writefile{toc}{\contentsline {subsection}{Offertory}{4}{}\protected@file@percent }
\newmarginnote{note.4.1}{{4}{14894366sp}}
\@writefile{toc}{\contentsline {subsection}{Communion}{5}{}\protected@file@percent }
\newmarginnote{note.5.1}{{5}{3753246sp}}
\@writefile{toc}{\contentsline {section}{\numberline {0.2}For Septuagesima and Paschaltide}{6}{}\protected@file@percent }
\@writefile{toc}{\contentsline {subsection}{Tract}{6}{}\protected@file@percent }
\newmarginnote{note.6.1}{{6}{14894366sp}}
\@writefile{toc}{\contentsline {subsection}{Second Alleluia}{7}{}\protected@file@percent }
\newmarginnote{note.7.1}{{7}{3753246sp}}
\@writefile{toc}{\contentsline {section}{\numberline {0.3}Psalm toned Gradual, Alleluia and Tract}{8}{}\protected@file@percent }
\@writefile{toc}{\contentsline {subsection}{Gradual}{8}{}\protected@file@percent }
\newmarginnote{note.8.1}{{8}{14894366sp}}
\@writefile{toc}{\contentsline {subsection}{Alleluia}{8}{}\protected@file@percent }
\newmarginnote{note.8.2}{{8}{14894366sp}}
\@writefile{toc}{\contentsline {subsection}{Septuagesima - this Tract replaces the Alleluia}{9}{}\protected@file@percent }
\newmarginnote{note.9.1}{{9}{3753246sp}}
\@writefile{toc}{\contentsline {subsection}{Second Alleluia}{9}{}\protected@file@percent }
\newmarginnote{note.9.2}{{9}{3753246sp}}
\@writefile{toc}{\contentsline {section}{\numberline {0.4}Extras - ad libitum}{10}{}\protected@file@percent }
\@writefile{toc}{\contentsline {subsection}{Virgo Dei Genetrix}{10}{}\protected@file@percent }
\newmarginnote{note.10.1}{{10}{14894366sp}}
\@writefile{toc}{\contentsline {subsection}{Omni Die Dic Mariae}{11}{}\protected@file@percent }
\newmarginnote{note.11.1}{{11}{3753246sp}}
\@writefile{toc}{\contentsline {subsection}{Maria Mater Gratiae}{13}{}\protected@file@percent }
\newmarginnote{note.13.1}{{13}{3753246sp}}
\@writefile{toc}{\contentsline {subsection}{Salve Mater}{14}{}\protected@file@percent }
\newmarginnote{note.14.1}{{14}{14894366sp}}
\@writefile{toc}{\contentsline {subsection}{Ave Verum}{16}{}\protected@file@percent }
\newmarginnote{note.16.1}{{16}{14894366sp}}
\@writefile{toc}{\contentsline {subsection}{Anima Christi}{17}{}\protected@file@percent }
\newmarginnote{note.17.1}{{17}{3753246sp}}
\@writefile{toc}{\contentsline {subsection}{Cor Arca}{18}{}\protected@file@percent }
\newmarginnote{note.18.1}{{18}{14894366sp}}
\newmarginnote{note.18.2}{{18}{14894366sp}}
\newmarginnote{note.18.3}{{18}{14894366sp}}
\newmarginnote{note.18.4}{{18}{14894366sp}}
\newmarginnote{note.18.5}{{18}{14894366sp}}
\newmarginnote{note.18.6}{{18}{14894366sp}}
\memsetcounter{lastsheet}{18}
\memsetcounter{lastpage}{18}
\gdef \@abspage@last{18}
