\relax 
\providecommand*{\memsetcounter}[2]{}
\@writefile{toc}{\contentsline {section}{\numberline {0.1}Propers}{1}\protected@file@percent }
\@writefile{toc}{\contentsline {subsection}{Introit}{1}\protected@file@percent }
\newmarginnote{note.1.1}{{1}{3753246sp}}
\@writefile{toc}{\contentsline {subsection}{Gradual}{2}\protected@file@percent }
\newmarginnote{note.2.1}{{2}{14894366sp}}
\@writefile{toc}{\contentsline {subsection}{Alleluia}{3}\protected@file@percent }
\newmarginnote{note.3.1}{{3}{3753246sp}}
\@writefile{toc}{\contentsline {subsection}{Tract}{4}\protected@file@percent }
\newmarginnote{note.4.1}{{4}{14894366sp}}
\@writefile{toc}{\contentsline {subsection}{Second Alleluia}{5}\protected@file@percent }
\newmarginnote{note.5.1}{{5}{3753246sp}}
\@writefile{toc}{\contentsline {subsection}{Psalm toned Gradual, Alleluia and Tract}{6}\protected@file@percent }
\@writefile{toc}{\contentsline {subsubsection}{Gradual}{6}\protected@file@percent }
\newmarginnote{note.6.1}{{6}{14894366sp}}
\@writefile{toc}{\contentsline {subsubsection}{Alleluia}{6}\protected@file@percent }
\newmarginnote{note.6.2}{{6}{14894366sp}}
\@writefile{toc}{\contentsline {subsubsection}{Septuagesima - this Tract replaces the Alleluia}{7}\protected@file@percent }
\newmarginnote{note.7.1}{{7}{3753246sp}}
\@writefile{toc}{\contentsline {subsubsection}{Second Alleluia}{7}\protected@file@percent }
\newmarginnote{note.7.2}{{7}{3753246sp}}
\@writefile{toc}{\contentsline {subsection}{Offertory outside Paschaltide}{8}\protected@file@percent }
\newmarginnote{note.8.1}{{8}{14894366sp}}
\@writefile{toc}{\contentsline {subsection}{Communion outside Paschaltide}{9}\protected@file@percent }
\newmarginnote{note.9.1}{{9}{3753246sp}}
\@writefile{toc}{\contentsline {subsection}{Offertory in Paschaltide}{10}\protected@file@percent }
\newmarginnote{note.10.1}{{10}{14894366sp}}
\@writefile{toc}{\contentsline {subsection}{Commmunion in Paschaltide}{11}\protected@file@percent }
\newmarginnote{note.11.1}{{11}{3753246sp}}
\@writefile{toc}{\contentsline {section}{\numberline {0.2}Extras - ad libitum}{12}\protected@file@percent }
\@writefile{toc}{\contentsline {subsection}{Ave Verum}{12}\protected@file@percent }
\newmarginnote{note.12.1}{{12}{14894366sp}}
\@writefile{toc}{\contentsline {subsection}{Anima Christi}{13}\protected@file@percent }
\newmarginnote{note.13.1}{{13}{3753246sp}}
\@writefile{toc}{\contentsline {subsection}{Jesu Dulcis Memoria}{14}\protected@file@percent }
\newmarginnote{note.14.1}{{14}{14894366sp}}
\@writefile{toc}{\contentsline {subsection}{Summi Parentis}{15}\protected@file@percent }
\newmarginnote{note.15.1}{{15}{3753246sp}}
\newmarginnote{note.15.2}{{15}{3753246sp}}
\newmarginnote{note.15.3}{{15}{3753246sp}}
\newmarginnote{note.15.4}{{15}{3753246sp}}
\newmarginnote{note.15.5}{{15}{3753246sp}}
\newmarginnote{note.15.6}{{15}{3753246sp}}
\@writefile{toc}{\contentsline {subsection}{Cor Arca}{16}\protected@file@percent }
\newmarginnote{note.16.1}{{16}{14894366sp}}
\newmarginnote{note.16.2}{{16}{14894366sp}}
\newmarginnote{note.16.3}{{16}{14894366sp}}
\newmarginnote{note.16.4}{{16}{14894366sp}}
\newmarginnote{note.16.5}{{16}{14894366sp}}
\newmarginnote{note.16.6}{{16}{14894366sp}}
\@writefile{toc}{\contentsline {subsection}{Cor Jesu Sacratissimum}{17}\protected@file@percent }
\@writefile{toc}{\contentsline {subsection}{Cor Jesu Caritatis Victima}{18}\protected@file@percent }
\memsetcounter{lastsheet}{18}
\memsetcounter{lastpage}{18}
